<svg width="48" height="42" viewBox="0 0 48 42" fill="none" xmlns="http://www.w3.org/2000/svg">
<path d="M18 8.83752V7.875C18 6.42525 19.3431 5.25 21 5.25H27C28.6569 5.25 30 6.42525 30 7.875V8.83752C32.2822 9.24288 34 11.0084 34 13.125V32.375C34 34.7912 31.7614 36.75 29 36.75H19C16.2386 36.75 14 34.7912 14 32.375V13.125C14 11.0084 15.7178 9.24288 18 8.83752ZM28 8.75V7.875C28 7.39175 27.5523 7 27 7H21C20.4477 7 20 7.39175 20 7.875V8.75H28ZM19 10.5C17.3431 10.5 16 11.6753 16 13.125V32.375C16 33.8247 17.3431 35 19 35H29C30.6569 35 32 33.8247 32 32.375V13.125C32 11.6753 30.6569 10.5 29 10.5H19ZM21 22.75C20.2013 22.75 19.7249 21.9711 20.1679 21.3896L24.1679 16.1396C24.4743 15.7375 25.0952 15.6289 25.5547 15.897C26.0142 16.165 26.1384 16.7083 25.8321 17.1104L22.8685 21H27C27.7987 21 28.2751 21.7789 27.8321 22.3604L23.8321 27.6104C23.5257 28.0125 22.9048 28.1211 22.4453 27.853C21.9858 27.585 21.8616 27.0417 22.1679 26.6396L25.1315 22.75H21Z" fill="white"/>
</svg>
